{
  "development": {
    "username": "root",
    "password": null,
    "database": "akokomarket_db",
    "host": "127.0.0.1",
    "dialect": "mysql",
    "define": {
      "timestamps": true,
      "freezeTableName": true,
      "underscored": true,
      "createdAt": "date_created",
      "updatedAt": "last_updated"
    }
  },
  "test": {
    "username": "root",
    "password": null,
    "database": "database_test",
    "host": "127.0.0.1",
    "dialect": "mysql",
    "define": {
      "timestamps": true,
      "freezeTableName": true,
      "underscored": true,
      "createdAt": "date_created",
      "updatedAt": "last_updated"
    }
  },
  "production": {
    "username": "root",
    "password": null,
    "database": "database_production",
    "host": "127.0.0.1",
    "dialect": "mysql",
    "define": {
      "timestamps": true,
      "freezeTableName": true,
      "underscored": true,
      "createdAt": "date_created",
      "updatedAt": "last_updated"
    }
  }
}
